…
```r
library("worrms")
```

## Get records

WoRMS 'records' are taxa, not specimen occurrences or something else.

by date


```r
wm_records_date('2016-12-23T05:59:45+00:00')
#> # A tibble: 50 x 25
#>    AphiaID url   scientificname authority status unacceptreason rank 
#>      <int> <chr> <chr>          <chr>     <chr>  <lgl>          <chr>
#>  1  894302 http… Paleopolymorp… Vasilenk… accep… NA             Spec…
#>  2  894296 http… Parapachyphlo… Miklukho… accep… NA             Spec…
#>  3  894298 http… Parapachyphlo… Miklukho… accep… NA             Spec…
#>  4  894301 http… Ovulina radia… Seguenza… accep… NA             Spec…
#>  5  894299 http… Parafissurina… Petri, 1… accep… NA             Spec…
#>  6  894297 http… Parapachyphlo… Miklukho… accep… NA             Spec…
#>  7  894303 http… Anomalina nod… Terquem,… accep… NA             Spec…
#>  8  908243 http… Linderina kol… Singh, 1… accep… NA             Spec…
#>  9  901296 http… Pseudoreichel… Ueno, 19… accep… NA             Spec…
#> 10  901957 http… Gaudryinella … Moullade… accep… NA             Spec…
#> # … with 40 more rows, and 18 more variables: valid_AphiaID <int>,
#> #   valid_name <chr>, valid_authority <chr>, kingdom <chr>, phylum <chr>,
#> #   class <chr>, order <chr>, family <chr>, genus <chr>, citation <chr>,
#> #   lsid <chr>, isMarine <int>, isBrackish <lgl>, isFreshwater <lgl>,
#> #   isTerrestrial <lgl>, isExtinct <int>, match_type <chr>, modified <chr>
```
…
