…
```r
library("worrms")
```

## Get records

WoRMS 'records' are taxa, not specimen occurrences or something else.

by date


```r
wm_records_date('2016-12-23T05:59:45+00:00')
#> # A tibble: 50 x 27
#>    AphiaID url   scientificname authority status unacceptreason taxonRankID
#>      <int> <chr> <chr>          <chr>     <chr>  <lgl>                <int>
#>  1  894302 http… Paleopolymorp… Vasilenk… accep… NA                     220
#>  2  894296 http… Parapachyphlo… Miklukho… accep… NA                     220
#>  3  894298 http… Parapachyphlo… Miklukho… accep… NA                     220
#>  4  894301 http… Ovulina radia… Seguenza… accep… NA                     220
#>  5  894299 http… Parafissurina… Petri, 1… accep… NA                     220
#>  6  894297 http… Parapachyphlo… Miklukho… accep… NA                     220
#>  7  894303 http… Anomalina nod… Terquem,… accep… NA                     220
#>  8  901957 http… Gaudryinella … Moullade… accep… NA                     220
#>  9  916899 http… Gavelinella p… Porthaul… accep… NA                     220
#> 10  902959 http… Valvulineria … Kicinski… accep… NA                     220
#> # … with 40 more rows, and 20 more variables: rank <chr>,
#> #   valid_AphiaID <int>, valid_name <chr>, valid_authority <chr>,
#> #   parentNameUsageID <int>, kingdom <chr>, phylum <chr>, class <chr>,
#> #   order <chr>, family <chr>, genus <chr>, citation <chr>, lsid <chr>,
#> #   isMarine <int>, isBrackish <lgl>, isFreshwater <lgl>,
#> #   isTerrestrial <lgl>, isExtinct <int>, match_type <chr>, modified <chr>
```
…
